{
  "content": [
    {
      "id": 929,
      "slug": "eb3cb609",
      "status": "PUBLISHED",
      "origin": "ORIGINAL",
      "title": "什么是分布式数据库？我不信，看完这篇你还不懂!",
      "summary": "自从互联网进入了 web2.0 时代以来，数据库作为核心的底层基础设施软件也经历了蓬勃的发展期，从早期的单机关系型数据库到NoSQL 再到如今的 NewSQL，数据库领域不管是技术还是场景都发生...",
      "publishedAt": "2022-10-25T04:05:34.000+00:00",
      "recommended": true,
      "recommendAt": "2022-11-11T09:04:12.000+00:00",
      "createdAt": "2022-10-25T04:05:32.000+00:00",
      "lastModifiedAt": "2022-11-11T09:04:12.000+00:00",
      "deletedAt": null,
      "likes": 5,
      "comments": 2,
      "visits": 685,
      "score": 1666929934,
      "author": {
        "id": 12,
        "username": "hey-hoho",
        "avatarURL": "https://asktug.com/user_avatar/asktug.com/hey-hoho/50/99003_2.png"
      },
      "category": {
        "id": 1003,
        "name": "架构选型",
        "slug": "architecture-selection"
      },
      "tags": [
        {
          "id": 1018,
          "name": "数据库前沿趋势",
          "slug": "frontier-trends-of-databases"
        },
        {
          "id": 1019,
          "name": "数据库架构设计",
          "slug": "database-architecture-design"
        }
      ]
    },
    {
      "id": 944,
      "slug": "fbc5a0a6",
      "status": "PUBLISHED",
      "origin": "ORIGINAL",
      "title": "案例故事丨MySQL or TiDB？HTAP 数据库在中国 SaaS 行业头部服务商的应用实践",
      "summary": "CRM 并不是简单的销售和客户服务的效率工具。本质上，CRM 是以平台化思维实现业务管理和数据的打通，为 360 度客户旅程提供数字化支撑。IDC 发布的《IDC 中国企业级应用管理 SaaS ...",
      "publishedAt": "2022-11-08T08:26:15.000+00:00",
      "recommended": true,
      "recommendAt": "2022-11-11T09:03:43.000+00:00",
      "createdAt": "2022-11-08T08:26:12.000+00:00",
      "lastModifiedAt": "2022-11-11T09:03:43.000+00:00",
      "deletedAt": null,
      "likes": 0,
      "comments": 0,
      "visits": 68,
      "score": 1667895975,
      "author": {
        "id": 853,
        "username": "TiDB社区小助手",
        "avatarURL": "https://asktug.com/user_avatar/asktug.com/tidb社区小助手/50/704255_2.png"
      },
      "category": {
        "id": 1002,
        "name": "实践案例",
        "slug": "practical-case"
      },
      "tags": []
    },
    {
      "id": 949,
      "slug": "f85d8878",
      "status": "PUBLISHED",
      "origin": "ORIGINAL",
      "title": "教你一招，安全的从 MySQL 切换到 TiDB",
      "summary": "背景原应用系统是跑在单机 MySQL 上，随着业务量的慢慢递增，单机 MySQL 渐渐支撑不住了，故需要迁移到 TiDB 上，这时候就有一些问题出现了。首先，希望在切换数据库的时候，业务侧不希望...",
      "publishedAt": "2022-11-11T07:58:34.000+00:00",
      "recommended": true,
      "recommendAt": "2022-11-11T09:03:05.000+00:00",
      "createdAt": "2022-11-11T07:58:32.000+00:00",
      "lastModifiedAt": "2022-11-11T09:03:05.000+00:00",
      "deletedAt": null,
      "likes": 2,
      "comments": 1,
      "visits": 185,
      "score": 1668261514,
      "author": {
        "id": 8,
        "username": "CuteRay",
        "avatarURL": "https://asktug.com/user_avatar/asktug.com/cuteray/50/67165_2.png"
      },
      "category": {
        "id": 1002,
        "name": "实践案例",
        "slug": "practical-case"
      },
      "tags": [
        {
          "id": 1002,
          "name": "迁移",
          "slug": "migrate"
        },
        {
          "id": 1010,
          "name": "实践案例",
          "slug": "practical-case"
        }
      ]
    },
    {
      "id": 961,
      "slug": "28391872",
      "status": "PUBLISHED",
      "origin": "ORIGINAL",
      "title": "TiDB在科捷物流神州金库核心系统的应用与实践",
      "summary": "导读：在经过了近半年的测试验证和迁移准备之后，神州金库3.0核心系统 WMS 正式从 MySQL 迁移到了分布式 HTAP 数据库 TiDB，上线后不久即经历了第一次双11的考验，TiDB的性能...",
      "publishedAt": "2022-11-28T11:17:56.000+00:00",
      "recommended": null,
      "recommendAt": null,
      "createdAt": "2022-11-28T11:17:54.000+00:00",
      "lastModifiedAt": "2022-11-28T11:17:56.000+00:00",
      "deletedAt": null,
      "likes": 1,
      "comments": 0,
      "visits": 35,
      "score": 1669677476,
      "author": {
        "id": 12,
        "username": "hey-hoho",
        "avatarURL": "https://asktug.com/user_avatar/asktug.com/hey-hoho/50/99003_2.png"
      },
      "category": {
        "id": 1002,
        "name": "实践案例",
        "slug": "practical-case"
      },
      "tags": [
        {
          "id": 1002,
          "name": "迁移",
          "slug": "migrate"
        },
        {
          "id": 1010,
          "name": "实践案例",
          "slug": "practical-case"
        },
        {
          "id": 1011,
          "name": "OLTP 场景实践",
          "slug": "oltp-scenario-practice"
        },
        {
          "id": 1012,
          "name": "HTAP 场景实践",
          "slug": "htap-scenario-practice"
        }
      ]
    },
    {
      "id": 851,
      "slug": "daba2ba6",
      "status": "PUBLISHED",
      "origin": "ORIGINAL",
      "title": "记一次TiDB数据库Insert语句执行报错的处理过程",
      "summary": "概述本文记录了TiDB数据库一次Insert语句执行报错的问题分析和解决方法。测试环境\r\n数据库版本信息：\r\ntidb 6.1.2\r\nmysql 8.0.28\r\n测试用表：test.t_test...",
      "publishedAt": "2022-11-21T09:42:48.000+00:00",
      "recommended": null,
      "recommendAt": null,
      "createdAt": "2022-08-11T01:32:38.000+00:00",
      "lastModifiedAt": "2022-11-21T09:42:48.000+00:00",
      "deletedAt": null,
      "likes": 0,
      "comments": 1,
      "visits": 143,
      "score": 1669045368,
      "author": {
        "id": 4818,
        "username": "tracy0984",
        "avatarURL": "https://asktug.com/letter_avatar_proxy/v4/letter/t/b782af/50.png"
      },
      "category": {
        "id": 1001,
        "name": "管理与运维",
        "slug": "management-and-operation"
      },
      "tags": []
    },
    {
      "id": 954,
      "slug": "fcf10009",
      "status": "PUBLISHED",
      "origin": "ORIGINAL",
      "title": "TiDB常用SQL",
      "summary": "查询表大小SELECT\nt.TABLE_NAME,\nt.TABLE_ROWS,\nt.TABLE_TYPE,\nround(t.DATA_LENGTH/1024/1024/1024,2) data_...",
      "publishedAt": "2022-11-18T02:43:52.000+00:00",
      "recommended": null,
      "recommendAt": null,
      "createdAt": "2022-11-18T01:09:19.000+00:00",
      "lastModifiedAt": "2022-11-18T02:43:52.000+00:00",
      "deletedAt": null,
      "likes": 3,
      "comments": 2,
      "visits": 276,
      "score": 1668912232,
      "author": {
        "id": 3969,
        "username": "我是咖啡哥",
        "avatarURL": "https://asktug.com/user_avatar/asktug.com/我是咖啡哥/50/824282_2.png"
      },
      "category": {
        "id": 1001,
        "name": "管理与运维",
        "slug": "management-and-operation"
      },
      "tags": [
        {
          "id": 1003,
          "name": "集群管理",
          "slug": "cluster-management"
        },
        {
          "id": 1008,
          "name": "性能调优",
          "slug": "performance-tuning"
        }
      ]
    },
    {
      "id": 955,
      "slug": "e23a7355",
      "status": "PUBLISHED",
      "origin": "ORIGINAL",
      "title": "记录一次TiDB v5.2.3迁移到v6.1.0的过程",
      "summary": "一．环境简介1.1生产硬件资源组件CPU内存磁盘网络私网IP公网IPTiDB8C16g100G万兆 xxx.xxx.15.410.147.1.55TiDB8C16g100G万兆xxx.xxx.1...",
      "publishedAt": "2022-11-18T06:57:12.000+00:00",
      "recommended": null,
      "recommendAt": null,
      "createdAt": "2022-11-18T06:52:40.000+00:00",
      "lastModifiedAt": "2022-11-18T06:57:12.000+00:00",
      "deletedAt": null,
      "likes": 2,
      "comments": 1,
      "visits": 200,
      "score": 1668862632,
      "author": {
        "id": 5489,
        "username": "gary",
        "avatarURL": "https://asktug.com/user_avatar/asktug.com/gary/50/1092699_2.png"
      },
      "category": {
        "id": 1002,
        "name": "实践案例",
        "slug": "practical-case"
      },
      "tags": [
        {
          "id": 1002,
          "name": "迁移",
          "slug": "migrate"
        },
        {
          "id": 1010,
          "name": "实践案例",
          "slug": "practical-case"
        }
      ]
    },
    {
      "id": 951,
      "slug": "49250115",
      "status": "PUBLISHED",
      "origin": "ORIGINAL",
      "title": "TiFlash 源码阅读（六） DeltaTree Index 的设计和实现分析",
      "summary": "TiFlash 是 TiDB 的分析引擎，是 TiDB HTAP 形态的关键组件，TiFlash 源码阅读系列文章将从源码层面介绍 TiFlash 的内部实现。在前面的源码分析中对 TiFlas...",
      "publishedAt": "2022-11-16T10:55:57.000+00:00",
      "recommended": null,
      "recommendAt": null,
      "createdAt": "2022-11-16T10:55:54.000+00:00",
      "lastModifiedAt": "2022-11-16T10:55:57.000+00:00",
      "deletedAt": null,
      "likes": 1,
      "comments": 0,
      "visits": 52,
      "score": 1668639357,
      "author": {
        "id": 853,
        "username": "TiDB社区小助手",
        "avatarURL": "https://asktug.com/user_avatar/asktug.com/tidb社区小助手/50/704255_2.png"
      },
      "category": {
        "id": 1004,
        "name": "原理解读",
        "slug": "principle-interpretation"
      },
      "tags": []
    },
    {
      "id": 953,
      "slug": "06dede75",
      "status": "PUBLISHED",
      "origin": "ORIGINAL",
      "title": "TiFlash 源码阅读（八）TiFlash 表达式的实现与设计",
      "summary": "TiFlash 是 TiDB 的分析引擎，是 TiDB HTAP 形态的关键组件，TiFlash 源码阅读系列文章将从源码层面介绍 TiFlash 的内部实现。在上一期的源码阅读中，大家应该对 ...",
      "publishedAt": "2022-11-16T11:33:17.000+00:00",
      "recommended": null,
      "recommendAt": null,
      "createdAt": "2022-11-16T11:33:14.000+00:00",
      "lastModifiedAt": "2022-11-16T11:33:17.000+00:00",
      "deletedAt": null,
      "likes": 0,
      "comments": 0,
      "visits": 30,
      "score": 1668598397,
      "author": {
        "id": 853,
        "username": "TiDB社区小助手",
        "avatarURL": "https://asktug.com/user_avatar/asktug.com/tidb社区小助手/50/704255_2.png"
      },
      "category": {
        "id": 1004,
        "name": "原理解读",
        "slug": "principle-interpretation"
      },
      "tags": []
    },
    {
      "id": 952,
      "slug": "12019ccf",
      "status": "PUBLISHED",
      "origin": "ORIGINAL",
      "title": "TiFlash 源码阅读（七）TiFlash Proxy 模块",
      "summary": "TiFlash 是 TiDB 的分析引擎，是 TiDB HTAP 形态的关键组件，TiFlash 源码阅读系列文章将从源码层面介绍 TiFlash 的内部实现。在前面的介绍中，大家应该对 TiF...",
      "publishedAt": "2022-11-16T11:07:03.000+00:00",
      "recommended": null,
      "recommendAt": null,
      "createdAt": "2022-11-16T11:07:01.000+00:00",
      "lastModifiedAt": "2022-11-16T11:07:03.000+00:00",
      "deletedAt": null,
      "likes": 0,
      "comments": 0,
      "visits": 40,
      "score": 1668596823,
      "author": {
        "id": 853,
        "username": "TiDB社区小助手",
        "avatarURL": "https://asktug.com/user_avatar/asktug.com/tidb社区小助手/50/704255_2.png"
      },
      "category": {
        "id": 1004,
        "name": "原理解读",
        "slug": "principle-interpretation"
      },
      "tags": []
    },
    {
      "id": 950,
      "slug": "ff305fb6",
      "status": "PUBLISHED",
      "origin": "ORIGINAL",
      "title": "将业务从mysql迁移至TIDB，有哪些需要注意的？",
      "summary": "背景双十一刚过，至此，两个月前我们从mysql迁移到TIDB的一套业务算是正式成功了。集团有一套业务库，对接淘宝流量，据说每年双十一的时候流量过大会导致各种问题，苦不堪言。经过内部评估，我们决定...",
      "publishedAt": "2022-11-14T02:10:13.000+00:00",
      "recommended": null,
      "recommendAt": null,
      "createdAt": "2022-11-13T13:45:54.000+00:00",
      "lastModifiedAt": "2022-11-27T12:10:43.000+00:00",
      "deletedAt": null,
      "likes": 2,
      "comments": 0,
      "visits": 119,
      "score": 1668478213,
      "author": {
        "id": 509,
        "username": "BraveChen",
        "avatarURL": "https://asktug.com/user_avatar/asktug.com/bravechen/50/912648_2.png"
      },
      "category": {
        "id": 1002,
        "name": "实践案例",
        "slug": "practical-case"
      },
      "tags": [
        {
          "id": 1013,
          "name": "大数据场景实践",
          "slug": "big-data-scenario-practice"
        },
        {
          "id": 1027,
          "name": "应用适配",
          "slug": "application-adaptation"
        },
        {
          "id": 1033,
          "name": "管理与运维",
          "slug": "management-and-operation-and-maintenance"
        }
      ]
    },
    {
      "id": 947,
      "slug": "391051db",
      "status": "PUBLISHED",
      "origin": "ORIGINAL",
      "title": "# 分布式数据库新秀TIDB初探",
      "summary": "背景随着社会数字化程度的加深，网络逐渐成为了社会的基础设施。随着互联网渗透程度的不断深入和互联网的进一步下沉，人们会在互联网上面 花费更多的时间，产生更多的数据。作为数据存储基石的DB面临着新的...",
      "publishedAt": "2022-11-14T02:10:25.000+00:00",
      "recommended": null,
      "recommendAt": null,
      "createdAt": "2022-11-10T01:43:04.000+00:00",
      "lastModifiedAt": "2022-11-14T02:10:25.000+00:00",
      "deletedAt": null,
      "likes": 0,
      "comments": 0,
      "visits": 46,
      "score": 1668391825,
      "author": {
        "id": 9685,
        "username": "凌云Cloud",
        "avatarURL": "https://asktug.com/letter_avatar_proxy/v4/letter/%E5%87%8C/48db29/50.png"
      },
      "category": {
        "id": 1004,
        "name": "原理解读",
        "slug": "principle-interpretation"
      },
      "tags": [
        {
          "id": 1022,
          "name": "TiDB 源码解读",
          "slug": "tidb-source-code-interpretation"
        },
        {
          "id": 1023,
          "name": "TiDB 底层架构",
          "slug": "tidb-underlying-architecture"
        }
      ]
    },
    {
      "id": 948,
      "slug": "2e09b2ff",
      "status": "PUBLISHED",
      "origin": "REPOST",
      "title": "技术分享 | TiUP工具 - TiDB集群滚动升级核心流程解析",
      "summary": "作者：贲绍华爱可生研发中心工程师，负责项目的需求与维护工作。其他身份：柯基铲屎官。本文来源：原创投稿*爱可生开源社区出品引言：滚动升级是一种在线升级方式，相比离线升级，滚动升级可保证在部分或全部...",
      "publishedAt": "2022-11-11T03:48:26.000+00:00",
      "recommended": null,
      "recommendAt": null,
      "createdAt": "2022-11-11T03:48:24.000+00:00",
      "lastModifiedAt": "2022-11-11T03:48:26.000+00:00",
      "deletedAt": null,
      "likes": 1,
      "comments": 0,
      "visits": 60,
      "score": 1668181706,
      "author": {
        "id": 853,
        "username": "TiDB社区小助手",
        "avatarURL": "https://asktug.com/user_avatar/asktug.com/tidb社区小助手/50/704255_2.png"
      },
      "category": {
        "id": 1004,
        "name": "原理解读",
        "slug": "principle-interpretation"
      },
      "tags": []
    },
    {
      "id": 946,
      "slug": "2e5d1981",
      "status": "PUBLISHED",
      "origin": "ORIGINAL",
      "title": "EMR with TiSpark（on EKS ）",
      "summary": "作者：王歌背景描述现有集群部署在 EKS 上，使用 TiDB Operator 部署的 TiDB 集群使用 spark 主要想实现以下功能：ETL（批处理数据，从 TiDB 读取数据进行加工，然...",
      "publishedAt": "2022-11-09T02:52:08.000+00:00",
      "recommended": null,
      "recommendAt": null,
      "createdAt": "2022-11-09T02:20:04.000+00:00",
      "lastModifiedAt": "2022-11-09T02:52:09.000+00:00",
      "deletedAt": null,
      "likes": 0,
      "comments": 0,
      "visits": 26,
      "score": 1667962328,
      "author": {
        "id": 1815,
        "username": "shiyuhang0",
        "avatarURL": "https://asktug.com/letter_avatar_proxy/v4/letter/s/9de053/50.png"
      },
      "category": {
        "id": 1002,
        "name": "实践案例",
        "slug": "practical-case"
      },
      "tags": []
    },
    {
      "id": 945,
      "slug": "938aaf7b",
      "status": "PUBLISHED",
      "origin": "ORIGINAL",
      "title": "TiKV 源码阅读三部曲（二）读流程",
      "summary": "作者简介：谭新宇，清华大学软件学院研三在读，Apache IoTDB committer，Talent Plan Community mentor。TiKV 是一个支持事务的分布式 Key-Va...",
      "publishedAt": "2022-11-08T08:37:16.000+00:00",
      "recommended": null,
      "recommendAt": null,
      "createdAt": "2022-11-08T08:37:14.000+00:00",
      "lastModifiedAt": "2022-11-08T08:37:16.000+00:00",
      "deletedAt": null,
      "likes": 0,
      "comments": 0,
      "visits": 101,
      "score": 1667896636,
      "author": {
        "id": 853,
        "username": "TiDB社区小助手",
        "avatarURL": "https://asktug.com/user_avatar/asktug.com/tidb社区小助手/50/704255_2.png"
      },
      "category": {
        "id": 1004,
        "name": "原理解读",
        "slug": "principle-interpretation"
      },
      "tags": []
    },
    {
      "id": 943,
      "slug": "fbba1ff8",
      "status": "PUBLISHED",
      "origin": "ORIGINAL",
      "title": "TiDB 2022 Hackathon 产品组决赛“不负责任”点评",
      "summary": "一年一度的 TiDB Hackathon 终于落下了帷幕，这次 Hackathon 分成了两条赛道，产品组和应用组，我做为产品组的决赛评委，全程参与了整个决赛 32 个项目的答辩，见到了很多有意...",
      "publishedAt": "2022-11-08T08:07:25.000+00:00",
      "recommended": null,
      "recommendAt": null,
      "createdAt": "2022-11-08T08:07:23.000+00:00",
      "lastModifiedAt": "2022-11-08T08:07:25.000+00:00",
      "deletedAt": null,
      "likes": 0,
      "comments": 0,
      "visits": 28,
      "score": 1667894845,
      "author": {
        "id": 853,
        "username": "TiDB社区小助手",
        "avatarURL": "https://asktug.com/user_avatar/asktug.com/tidb社区小助手/50/704255_2.png"
      },
      "category": {
        "id": 1006,
        "name": "社区动态",
        "slug": "community-feeds"
      },
      "tags": []
    },
    {
      "id": 940,
      "slug": "8e23b400",
      "status": "PUBLISHED",
      "origin": "ORIGINAL",
      "title": "PingCAP 携手阿里云，探索 TiDB 云原生的进阶之路",
      "summary": "11 月 5 日，阿里云产品伙伴发展论坛在 2022 云栖大会现场举办。作为阿里云的生态伙伴之一，PingCAP 受邀参加本次论坛，PingCAP 生态研发副总经理张翔分享了“云时代的 TiDB...",
      "publishedAt": "2022-11-08T07:48:18.000+00:00",
      "recommended": null,
      "recommendAt": null,
      "createdAt": "2022-11-08T07:48:16.000+00:00",
      "lastModifiedAt": "2022-11-08T07:48:18.000+00:00",
      "deletedAt": null,
      "likes": 0,
      "comments": 0,
      "visits": 32,
      "score": 1667893698,
      "author": {
        "id": 853,
        "username": "TiDB社区小助手",
        "avatarURL": "https://asktug.com/user_avatar/asktug.com/tidb社区小助手/50/704255_2.png"
      },
      "category": {
        "id": 1006,
        "name": "社区动态",
        "slug": "community-feeds"
      },
      "tags": []
    },
    {
      "id": 938,
      "slug": "f74f6a0a",
      "status": "PUBLISHED",
      "origin": "ORIGINAL",
      "title": "TiDB 的 graceful shutdown",
      "summary": "现象应用通过负载均衡链接 TiDB，使用 tiup cluster upgrade 滚动升级集群时，应用报 connection refused。以下基于 TiDB v6.1.2 分析该现象原因...",
      "publishedAt": "2022-11-07T02:37:11.000+00:00",
      "recommended": null,
      "recommendAt": null,
      "createdAt": "2022-11-06T02:49:40.000+00:00",
      "lastModifiedAt": "2022-11-07T02:37:11.000+00:00",
      "deletedAt": null,
      "likes": 1,
      "comments": 0,
      "visits": 273,
      "score": 1667831831,
      "author": {
        "id": 1267,
        "username": "yiduoyunQ",
        "avatarURL": "https://asktug.com/letter_avatar_proxy/v4/letter/y/df705f/50.png"
      },
      "category": {
        "id": 1004,
        "name": "原理解读",
        "slug": "principle-interpretation"
      },
      "tags": []
    },
    {
      "id": 648,
      "slug": "519df031",
      "status": "PUBLISHED",
      "origin": "ORIGINAL",
      "title": "文盘Rust -- 起手式，CLI程序",
      "summary": "notice\"Rust is a trademark of the Mozilla Foundation in the US and other countries.\" 文盘rust 上次发了一...",
      "publishedAt": "2022-11-01T04:38:40.000+00:00",
      "recommended": null,
      "recommendAt": null,
      "createdAt": "2022-04-13T00:56:29.000+00:00",
      "lastModifiedAt": "2022-11-01T04:40:58.000+00:00",
      "deletedAt": null,
      "likes": 1,
      "comments": 0,
      "visits": 247,
      "score": 1667320720,
      "author": {
        "id": 83,
        "username": "jiashiwen",
        "avatarURL": "https://asktug.com/user_avatar/asktug.com/jiashiwen/50/333_2.png"
      },
      "category": {
        "id": 1005,
        "name": "应用开发",
        "slug": "application-development"
      },
      "tags": [
        {
          "id": 1028,
          "name": "开发语言",
          "slug": "development-language"
        }
      ]
    },
    {
      "id": 850,
      "slug": "9f8832ea",
      "status": "PUBLISHED",
      "origin": "ORIGINAL",
      "title": " 记一次TiDB数据库报错的处理过程",
      "summary": "概述本文记录了一次TiDB数据库报错的处理过程。其中也列举了查看TiDB数据库慢SQL,创建索引以及查看SQL执行计划等操作的具体步骤。问题描述TiDB版本：v5.3.0测试使用kettle脚本...",
      "publishedAt": "2022-11-01T07:56:45.000+00:00",
      "recommended": null,
      "recommendAt": null,
      "createdAt": "2022-08-11T01:31:10.000+00:00",
      "lastModifiedAt": "2022-11-01T08:34:34.000+00:00",
      "deletedAt": null,
      "likes": 0,
      "comments": 0,
      "visits": 344,
      "score": 1667289405,
      "author": {
        "id": 4818,
        "username": "tracy0984",
        "avatarURL": "https://asktug.com/letter_avatar_proxy/v4/letter/t/b782af/50.png"
      },
      "category": {
        "id": 1002,
        "name": "实践案例",
        "slug": "practical-case"
      },
      "tags": [
        {
          "id": 1033,
          "name": "管理与运维",
          "slug": "management-and-operation-and-maintenance"
        }
      ]
    }
  ],
  "page": {
    "number": 1,
    "size": 20,
    "totalElements": 797,
    "totalPages": 40
  }
}
